…
This code uses the map function from the purrr package. It's very similar to the lapply function in base R and is used for doing computations involving list columns. This code also is a mini-test for a function that we wil produce soon. Instead of testing a model for all 142 countries, we are testing a model for 2 of them.


```r
(nest <- nest %>% 
   mutate(reg = map(data, le_vs_yr)))
```

```
## # A tibble: 142 × 4
##    continent     country              data      reg
##       <fctr>      <fctr>            <list>   <list>
## 1       Asia Afghanistan <tibble [12 × 4]> <S3: lm>
## 2     Europe     Albania <tibble [12 × 4]> <S3: lm>
## 3     Africa     Algeria <tibble [12 × 4]> <S3: lm>
## 4     Africa      Angola <tibble [12 × 4]> <S3: lm>
## 5   Americas   Argentina <tibble [12 × 4]> <S3: lm>
## 6    Oceania   Australia <tibble [12 × 4]> <S3: lm>
## 7     Europe     Austria <tibble [12 × 4]> <S3: lm>
## 8       Asia     Bahrain <tibble [12 × 4]> <S3: lm>
## 9       Asia  Bangladesh <tibble [12 × 4]> <S3: lm>
## 10    Europe     Belgium <tibble [12 × 4]> <S3: lm>
## # ... with 132 more rows
```

What this code does is make yet another column that is filled with regression models. We are unfortunately still dealing with list columns. Sometimes things have to get worse before they can get better.


```r
(nest <- nest %>% 
  mutate(tidy = map(reg, tidy)))
```

```
## # A tibble: 142 × 5
##    continent     country              data      reg                 tidy
##       <fctr>      <fctr>            <list>   <list>               <list>
## 1       Asia Afghanistan <tibble [12 × 4]> <S3: lm> <data.frame [2 × 5]>
## 2     Europe     Albania <tibble [12 × 4]> <S3: lm> <data.frame [2 × 5]>
## 3     Africa     Algeria <tibble [12 × 4]> <S3: lm> <data.frame [2 × 5]>
## 4     Africa      Angola <tibble [12 × 4]> <S3: lm> <data.frame [2 × 5]>
## 5   Americas   Argentina <tibble [12 × 4]> <S3: lm> <data.frame [2 × 5]>
## 6    Oceania   Australia <tibble [12 × 4]> <S3: lm> <data.frame [2 × 5]>
## 7     Europe     Austria <tibble [12 × 4]> <S3: lm> <data.frame [2 × 5]>
## 8       Asia     Bahrain <tibble [12 × 4]> <S3: lm> <data.frame [2 × 5]>
## 9       Asia  Bangladesh <tibble [12 × 4]> <S3: lm> <data.frame [2 × 5]>
## 10    Europe     Belgium <tibble [12 × 4]> <S3: lm> <data.frame [2 × 5]>
## # ... with 132 more rows
```


```r
(reg_output <- nest %>% 
   select(continent, country, tidy) %>% 
   unnest(tidy))
```

```
## # A tibble: 284 × 7
##    continent     country           term   estimate   std.error  statistic
##       <fctr>      <fctr>          <chr>      <dbl>       <dbl>      <dbl>
## 1       Asia Afghanistan    (Intercept) 29.3566375 0.698981278  41.999176
## 2       Asia Afghanistan I(year - 1950)  0.2753287 0.020450934  13.462890
## 3     Europe     Albania    (Intercept) 58.5597618 1.133575812  51.659325
## 4     Europe     Albania I(year - 1950)  0.3346832 0.033166387  10.091036
## 5     Africa     Algeria    (Intercept) 42.2364149 0.756269040  55.848399
## 6     Africa     Algeria I(year - 1950)  0.5692797 0.022127070  25.727749
## 7     Africa      Angola    (Intercept) 31.7079741 0.804287463  39.423683
## 8     Africa      Angola I(year - 1950)  0.2093399 0.023532003   8.895964
## 9   Americas   Argentina    (Intercept) 62.2250191 0.167091314 372.401279
## 10  Americas   Argentina I(year - 1950)  0.2317084 0.004888791  47.395847
## # ... with 274 more rows, and 1 more variables: p.value <dbl>
```
…
